<?xml version="1.0" encoding="utf-8"?>
<!-- Generator: Adobe Illustrator 19.0.0, SVG Export Plug-In . SVG Version: 6.00 Build 0)  -->
<svg version="1.1" id="Layer_1" xmlns="http://www.w3.org/2000/svg" xmlns:xlink="http://www.w3.org/1999/xlink" x="0px" y="0px"
	 width="200px" height="107.7px" viewBox="-320 244.6 200 107.7" style="enable-background:new -320 244.6 200 107.7;"
	 xml:space="preserve">
<style type="text/css">
	.st0{fill:#414042;}
</style>
<path id="XMLID_2_" class="st0" d="M-120,301.7c0.1-0.4-0.1-0.7-0.6-1c-0.4-0.3-0.8-0.3-1.1-0.2c-6.4,8.1-12.3,13.7-17.6,16.7
	c-0.9-6.6,0.8-14.6,5-24c0.5-1.1,0.6-2,0.3-2.8c-0.8-1.8-3.3-2.3-7.6-1.5c-3.8,0.7-6.2,1.8-7.3,3.3c-0.6,0.8-1.9,2.7-4.1,5.9
	c-2.2,3.2-4.3,6.3-6.5,9.2c-0.3,0.4-0.6,0.8-0.9,1.2c-0.3,0.4-0.7,0.8-1.1,1.2c-2.8,3.3-5.9,6.8-9.4,10.6c-3.5,3.8-6.3,6.7-8.5,8.5
	c0.3-2.4,1-4.9,2-7.5s2.4-6,4.3-10.2c1.9-4.1,3.2-6.9,3.7-8.2c3.8-5,5.2-8.2,4.2-9.6c-2.6-1.1-5.4-1.7-8.3-1.5
	c-2.9,0.1-4.6,0.7-5,1.8c-4.9,11-8,19.2-9.2,24.6c-6.6,7.8-10.9,12.1-12.9,12.9c-0.8-4.3,2.4-14.3,9.5-30c3.4-4.8,4.5-7.6,3.4-8.3
	c-2.1-1.3-4.8-1.9-8.1-1.6c-3.3,0.3-5,0.9-5.3,2c-3.6,6.6-6.3,12.9-8,19c-1.1,3.9-1.8,7.4-2.1,10.6c-0.8,0.9-1.5,1.8-2.3,2.7
	c-3.6,4.2-6.6,7.5-9,10.1c0.1-4.5,1.3-10.3,3.8-17.5c2.5-7.2,5.3-14,8.6-20.4c3.2-6.4,6.2-12.1,8.9-16.9c2.7-4.8,4.5-7.7,5.3-8.6
	c0.1-0.1,0.1-0.2,0.1-0.4v-0.3c-0.4-3.4-2.6-4.7-6.4-3.9c-5.4,1-11.7,5.3-19,12.9c-12,12.6-22.1,29.4-30.2,50.6
	c2.2-11,7.2-24.9,14.8-41.7s12.6-26.7,14.9-29.8c0.8-0.8,0.4-1.5-1.3-2c-2.9-0.9-6.2-1-9.9-0.3c-15.9,2.9-34.1,25.6-54.6,68.2
	c2.4-8.9,6.3-19.6,11.6-32.1c5.3-12.4,9.9-22.7,14-30.6c4-8,6.6-12.8,7.7-14.5c0.4-0.4,0.3-0.9-0.3-1.3c-0.6-0.4-1.7-0.8-3.3-1.1
	c-1.6-0.3-2.9-0.5-4.1-0.7c-1.1,0.3-2.5,0.1-4.1-0.1c-5.2-0.6-11-0.7-17.5-0.3c-14.4,0.8-24.8,3.2-31.2,7.3
	c-8.2,5.2-6.9,12,3.9,20.6c0-3,1.1-5.8,3.4-8.5c2.3-2.7,5.3-4.9,9-6.7c3.7-1.9,7.6-3.4,11.7-4.6c4-1.2,8.3-2.3,12.7-3
	c-5.1,8.7-9.5,17.9-13.2,27.4c-7.2,18.9-11,36.8-11.3,53.7c-0.2,10.4,0.9,17.1,3.3,20.2c1.9,2.4,4,1.4,6.3-3.1
	c6.2-12,13.3-24.6,21.3-37.8c8-13.2,15.7-24.4,23-33.6c-1.8,3.1-3.4,6.3-5,9.6c-6.7,14.7-10.2,29.3-10.4,43.7
	c-0.1,9,1,14.9,3.3,17.7c1.8,2.4,3.9,1.5,6-2.6c11-20.7,20.2-36.2,27.7-46.5c-5.9,12.5-8.5,23.5-7.9,32.9c0.4,6.4,2.1,10.6,5,12.6
	c2.2,1.7,4.2,1.3,6-1.1c1.1-1.4,4.1-5.7,9-12.7c0.3,2.1,0.8,3.9,1.5,5.6c1.8,4,4.4,5.6,7.9,4.7c4.4-1.1,8.7-5.7,12.9-14v0.9
	c0.3,8.1,1.8,12.2,4.7,12.2c4.5,0,12.9-9.3,25.2-27.9c3.3-4,5.9-7.4,7.9-10.3c-0.2,2.6-0.3,4.5-0.5,5.8c-0.1,1.2,0,3,0.5,5.2
	c0.4,2.2,0.8,3.8,1,4.7s0.6,2.4,1.2,4.4c-4.8,2.1-8.8,4.3-11.9,6.5c-6.6,4.6-9.2,8.9-7.7,12.8c1,2.8,3.5,4.6,7.7,5.5
	c5.1,1,9.8,0.1,14.1-2.8c6.3-4.2,9-11.3,8-21.2C-131.9,318-125.7,311.1-120,301.7z M-147.8,336.7c-1,1.9-2.3,3-3.8,3.3
	c-1.5,0.3-2.8-0.1-3.7-1.4c-0.9-1.2-1.1-2.9-0.5-4.9c0.1-0.4,0.3-0.8,0.4-1.2c0.1-0.4,0.3-0.7,0.6-1c0.3-0.3,0.5-0.6,0.7-0.8
	c0.2-0.2,0.5-0.5,0.9-0.8c0.4-0.3,0.7-0.5,0.9-0.6s0.5-0.3,1.1-0.6c0.6-0.3,1-0.4,1.2-0.5c0.2-0.1,0.7-0.3,1.4-0.6
	c0.7-0.3,1.2-0.5,1.4-0.6C-146.4,331.2-146.6,334.4-147.8,336.7z"/>
<g id="XMLID_30_">
</g>
<g id="XMLID_31_">
</g>
<g id="XMLID_32_">
</g>
<g id="XMLID_33_">
</g>
<g id="XMLID_34_">
</g>
<g id="XMLID_35_">
</g>
<g id="XMLID_36_">
</g>
<g id="XMLID_37_">
</g>
<g id="XMLID_38_">
</g>
<g id="XMLID_39_">
</g>
<g id="XMLID_40_">
</g>
<g id="XMLID_41_">
</g>
<g id="XMLID_42_">
</g>
<g id="XMLID_43_">
</g>
<g id="XMLID_44_">
</g>
</svg>
